[
  {
    "id": "1",
    "name": "Blast G79",
    "pathImg": "./image 3.png",
    "type": "Mouse",
    "price": "$50.59",
    "color": "black"
  },
  {
    "id": "2",
    "name": "Blast G79",
    "pathImg": "./image 1.png",
    "type": "Keyboard",
    "price": "$44.74",
    "color": "black-grey"
  },
  { 
    "id": "3",
    "name": "Blast G79",
    "pathImg": "./image 4.png",
    "type": "Headset",
    "price": "$150.69",
    "color": "black"
  },
  {
    "id": "4",
    "name": "Blast G79",
    "pathImg": "./image 5.png",
    "type": "VR Glasses",
    "price": "$1200.80",
    "color": "black"
  },
  {
    "id": "5",
    "name": "Blast G79",
    "pathImg": "./unsplash_i5UV2HpITYA.png",
    "type": "Laptop",
    "price": "$830.55",
    "color": "grey"
  },
  {
    "id": "6",
    "name": "Blast G79",
    "pathImg": "./unsplash_FJFPuE1MAOM.png",
    "type": "Joystick",
    "price": "$215.35",
    "color": "white"
  },
  { "id": "7",
    "name": "Blast G79",
    "pathImg": "./unsplash_1HcNgs3RrKE.png",
    "type": "Console",
    "price": "$100.35",
    "color": "pink"
  },
  {
    "id": "8",
    "name": "Blast G79",
    "pathImg": "./unsplash_Xn4g9aHY4ao.png",
    "type": "PS",
    "price": "$100.35",
    "color": "black"
  },
  { "id": "9",
    "name": "Blast G79",
    "pathImg": "./kisspng-computer-cases-housings-thermaltake-atx-hot-swap-pc-case-5b0f8fa8e59e73.9309037615277464729405-removebg-preview.png",
    "type": "Frame",
    "price": "$56.72",
    "color": "black"
  },
  {
    "id": "10",
    "name": "Blast G79",
    "pathImg": "./png-clipart-cooler-master-computer-cases-housings-rgb-color-model-molex-connector-air-cooling-coolers-purple-magenta-removebg-preview.png",
    "type": "Cooler",
    "price": "$15.53",
    "color": "black"
  }
]
